{
  "data": {
    "content": [
      {
        "objectId": "666712654198341632",
        "title": "测试",
        "issuer": "任佳健",
        "issueTime": 1578998284000,
        "replyCount": 0
      },
      {
        "objectId": "666324619933777920",
        "title": "青春不散，我们不老",
        "issuer": "张伟",
        "issueTime": 1578905769000,
        "replyCount": 2
      },
      {
        "objectId": "666298734555955200",
        "title": "恋爱修炼手册",
        "issuer": "张伟",
        "issueTime": 1578899598000,
        "replyCount": 1
      },
      {
        "objectId": "665277745084760064",
        "title": "trsr发的",
        "issuer": "测试1",
        "issueTime": 1578656175000,
        "replyCount": 1
      },
      {
        "objectId": "665253669612027904",
        "title": "啦",
        "issuer": "张伟",
        "issueTime": 1578650435000,
        "replyCount": 2
      },
      {
        "objectId": "665246702457847808",
        "title": "你懂的",
        "issuer": "张伟",
        "issueTime": 1578648774000,
        "replyCount": 1
      },
      {
        "objectId": "665246500225286144",
        "title": "测试",
        "issuer": "张伟",
        "issueTime": 1578648725000,
        "replyCount": 0
      },
      {
        "objectId": "665238790729629696",
        "title": "？？？？？",
        "issuer": "张伟",
        "issueTime": 1578646887000,
        "replyCount": 3
      },
      {
        "objectId": "665231446188752896",
        "title": "663",
        "issuer": "张伟",
        "issueTime": 1578645136000,
        "replyCount": 0
      },
      {
        "objectId": "665231001630277632",
        "title": "123",
        "issuer": "张伟",
        "issueTime": 1578645030000,
        "replyCount": 2
      }
    ],
    "pageable": {
      "sort": {
        "sorted": true,
        "unsorted": false,
        "empty": false
      },
      "pageNumber": 0,
      "pageSize": 10,
      "offset": "0",
      "unpaged": false,
      "paged": true
    },
    "last": false,
    "totalPages": 2,
    "totalElements": "18",
    "first": true,
    "sort": {
      "sorted": true,
      "unsorted": false,
      "empty": false
    },
    "number": 0,
    "numberOfElements": 10,
    "size": 10,
    "empty": false
  },
  "success": true
}
